HW5-Regan Alt-545
…
#import data
data.x <- read_delim("asset_data.txt", col_names=TRUE, delim=",")

## 
## -- Column specification --------------------------------------------------------
## cols(
##   date = col_date(format = ""),
##   close.spy = col_double(),
##   close.tlt = col_double(),
##   fed.rate = col_double()
## )

data.x

## # A tibble: 2,983 x 4
##    date       close.spy close.tlt fed.rate
##    <date>         <dbl>     <dbl>    <dbl>
##  1 2003-01-02      91.1      86.3    NA   
##  2 2003-01-03      91.4      86.5    NA   
##  3 2003-01-06      93.0      86.2    NA   
##  4 2003-01-07      92.7      86.6    NA   
##  5 2003-01-08      91.4      87.0     1.2 
##  6 2003-01-09      92.8      85.3    NA   
##  7 2003-01-10      93.1      85.5    NA   
##  8 2003-01-13      93.0      85.7    NA   
##  9 2003-01-14      93.3      86.0    NA   
## 10 2003-01-15      92.4      86.4     1.26
## # ... with 2,973 more rows
…
Question 9:

For the remainder of this assignment, we will be evaluating our portfolio using the test set data. We will be comparing three strategies: investing only in the S&P500, investing only in long term treasury bonds, and investing in the combined portfolio (computed in question 8).

In your test set, convert the federal funds interest rate from percent to decimal form and compute the returns series for each of the three assets (see question 3 for more details).

# Change interest rate to decimal form
data.x.test <- data.x.test %>% mutate(fed.rate = fed.rate/100)
# compute the returns series for each of the 3 assets
# calculate returns
data.x.test <- data.x.test %>% mutate(ret.spy = c(NA, diff(close.spy)/close.spy[-length(close.spy)]),
                                        ret.tlt = c(NA, diff(close.tlt)/close.tlt[-length(close.tlt)]))
data.x.test

## # A tibble: 43 x 6
##    date       close.spy close.tlt fed.rate  ret.spy  ret.tlt
##    <date>         <dbl>     <dbl>    <dbl>    <dbl>    <dbl>
##  1 2014-01-08      184.      103. 0.0008   NA       NA      
##  2 2014-01-15      185.      104. 0.0007    0.00621  0.0172 
##  3 2014-01-22      184.      105. 0.0007   -0.00195  0.00920
##  4 2014-01-29      177.      108. 0.0007   -0.0377   0.0244 
##  5 2014-02-05      175.      107. 0.0007   -0.0123  -0.00658
##  6 2014-02-12      182.      106. 0.000600  0.0394  -0.0116 
##  7 2014-02-19      183.      106. 0.000600  0.00522  0.00425
##  8 2014-02-26      185.      108. 0.0007    0.0100   0.0146 
##  9 2014-03-05      188.      108. 0.0007    0.0157  -0.00278
## 10 2014-03-12      187.      107. 0.0008   -0.00250 -0.00520
## # ... with 33 more rows
…
